[gd_scene load_steps=5 format=3 uid="uid://sf8q4u05ay0n"]

[ext_resource type="Script" path="res://Scripts/transition.gd" id="1_ytyl3"]

[sub_resource type="Animation" id="Animation_br5t7"]
resource_name = "Fade_in"
length = 0.3
tracks/0/type = "value"
tracks/0/imported = false
tracks/0/enabled = true
tracks/0/path = NodePath(".:modulate")
tracks/0/interp = 1
tracks/0/loop_wrap = true
tracks/0/keys = {
"times": PackedFloat32Array(0, 0.3),
"transitions": PackedFloat32Array(1, 1),
"update": 0,
"values": [Color(0, 0, 0, 1), Color(0, 0, 0, 0)]
}

[sub_resource type="Animation" id="Animation_5lik1"]
resource_name = "Fade_out"
length = 0.3
tracks/0/type = "value"
tracks/0/imported = false
tracks/0/enabled = true
tracks/0/path = NodePath(".:modulate")
tracks/0/interp = 1
tracks/0/loop_wrap = true
tracks/0/keys = {
"times": PackedFloat32Array(0, 0.3),
"transitions": PackedFloat32Array(1, 1),
"update": 0,
"values": [Color(0, 0, 0, 0), Color(0, 0, 0, 1)]
}

[sub_resource type="AnimationLibrary" id="AnimationLibrary_5x4oq"]
_data = {
"Fade_in": SubResource("Animation_br5t7"),
"Fade_out": SubResource("Animation_5lik1")
}

[node name="transition" type="ColorRect"]
modulate = Color(0, 0, 0, 1)
anchors_preset = 15
anchor_right = 1.0
anchor_bottom = 1.0
grow_horizontal = 2
grow_vertical = 2
mouse_filter = 2
script = ExtResource("1_ytyl3")

[node name="Animations" type="AnimationPlayer" parent="."]
libraries = {
"": SubResource("AnimationLibrary_5x4oq")
}

[connection signal="animation_finished" from="Animations" to="." method="_on_animation_player_animation_finished"]
